%YAML 1.1
%TAG !u! tag:unity3d.com,2011:
--- !u!74 &7400000
AnimationClip:
  m_ObjectHideFlags: 0
  m_CorrespondingSourceObject: {fileID: 0}
  m_PrefabInstance: {fileID: 0}
  m_PrefabAsset: {fileID: 0}
  m_Name: dichuyen
  serializedVersion: 6
  m_Legacy: 0
  m_Compressed: 0
  m_UseHighQualityCurve: 1
  m_RotationCurves: []
  m_CompressedRotationCurves: []
  m_EulerCurves: []
  m_PositionCurves: []
  m_ScaleCurves: []
  m_FloatCurves: []
  m_PPtrCurves:
  - curve:
    - time: 0
      value: {fileID: 21300000, guid: 8435e280d2798c546bf9834b2fadadb7, type: 3}
    - time: 0.1
      value: {fileID: 21300000, guid: 118db192fb6510c48b0479ad2871a162, type: 3}
    - time: 0.18333334
      value: {fileID: 21300000, guid: 6defb28d595edc64da74cf823b518a9e, type: 3}
    - time: 0.26666668
      value: {fileID: 21300000, guid: dc420a0bb2c34d84b9f802b302377bb8, type: 3}
    - time: 0.35
      value: {fileID: 21300000, guid: add44d6bba733d64695efed2abca7b84, type: 3}
    - time: 0.43333334
      value: {fileID: 21300000, guid: a5c8b1627e068d54caca94fe7ac5aad1, type: 3}
    - time: 0.51666665
      value: {fileID: 21300000, guid: 801209c7382e0f142b41870c53ce74e0, type: 3}
    - time: 0.6
      value: {fileID: 21300000, guid: 047902b5a7d0c394db8574a803263b48, type: 3}
    attribute: m_Sprite
    path: 
    classID: 212
    script: {fileID: 0}
  m_SampleRate: 60
  m_WrapMode: 0
  m_Bounds:
    m_Center: {x: 0, y: 0, z: 0}
    m_Extent: {x: 0, y: 0, z: 0}
  m_ClipBindingConstant:
    genericBindings:
    - serializedVersion: 2
      path: 0
      attribute: 0
      script: {fileID: 0}
      typeID: 212
      customType: 23
      isPPtrCurve: 1
    pptrCurveMapping:
    - {fileID: 21300000, guid: 8435e280d2798c546bf9834b2fadadb7, type: 3}
    - {fileID: 21300000, guid: 118db192fb6510c48b0479ad2871a162, type: 3}
    - {fileID: 21300000, guid: 6defb28d595edc64da74cf823b518a9e, type: 3}
    - {fileID: 21300000, guid: dc420a0bb2c34d84b9f802b302377bb8, type: 3}
    - {fileID: 21300000, guid: add44d6bba733d64695efed2abca7b84, type: 3}
    - {fileID: 21300000, guid: a5c8b1627e068d54caca94fe7ac5aad1, type: 3}
    - {fileID: 21300000, guid: 801209c7382e0f142b41870c53ce74e0, type: 3}
    - {fileID: 21300000, guid: 047902b5a7d0c394db8574a803263b48, type: 3}
  m_AnimationClipSettings:
    serializedVersion: 2
    m_AdditiveReferencePoseClip: {fileID: 0}
    m_AdditiveReferencePoseTime: 0
    m_StartTime: 0
    m_StopTime: 0.6166667
    m_OrientationOffsetY: 0
    m_Level: 0
    m_CycleOffset: 0
    m_HasAdditiveReferencePose: 0
    m_LoopTime: 1
    m_LoopBlend: 0
    m_LoopBlendOrientation: 0
    m_LoopBlendPositionY: 0
    m_LoopBlendPositionXZ: 0
    m_KeepOriginalOrientation: 0
    m_KeepOriginalPositionY: 1
    m_KeepOriginalPositionXZ: 0
    m_HeightFromFeet: 0
    m_Mirror: 0
  m_EditorCurves: []
  m_EulerEditorCurves: []
  m_HasGenericRootTransform: 0
  m_HasMotionFloatCurves: 0
  m_Events: []
